dir23062017/transcript
# //  Questa Sim-64
# //  Version 10.6a linux_x86_64 Mar 16 2017
# //
# //  Copyright 1991-2017 Mentor Graphics Corporation
# //  All Rights Reserved.
# //
# //  QuestaSim and its associated documentation contain trade
# //  secrets and commercial or financial information that are the property of
# //  Mentor Graphics Corporation and are privileged, confidential,
# //  and exempt from disclosure under the Freedom of Information Act,
# //  5 U.S.C. Section 552. Furthermore, this information
# //  is prohibited from disclosure under the Trade Secrets Act,
# //  18 U.S.C. Section 1905.
# //
# vsim -novopt tb_seq_det_mealy_1011 
# Start time: 22:41:08 on Jul 02,2017
# ** Warning: (vsim-8891) All optimizations are turned off because the -novopt switch is in effect. This will cause your simulation to run very slowly. If you are using this switch to preserve visibility for Debug or PLI features please see the User's Manual section on Preserving Object Visibility with vopt.
# Refreshing /home/student/Rishabh/dir23062017/work.tb_seq_det_mealy_1011
# Loading sv_std.std
# Loading work.tb_seq_det_mealy_1011
# Loading work.seq_det_mealy_1011
vsim -novopt work.tb_seq_det_mealy_1011
# End time: 22:41:22 on Jul 02,2017, Elapsed time: 0:00:14
# Errors: 0, Warnings: 1
# vsim -novopt work.tb_seq_det_mealy_1011 
# Start time: 22:41:22 on Jul 02,2017
# ** Warning: (vsim-8891) All optimizations are turned off because the -novopt switch is in effect. This will cause your simulation to run very slowly. If you are using this switch to preserve visibility for Debug or PLI features please see the User's Manual section on Preserving Object Visibility with vopt.
# Loading sv_std.std
# Loading work.tb_seq_det_mealy_1011
# Loading work.seq_det_mealy_1011
vsim -coverage work.tb_seq_det_mealy_1011
# End time: 22:41:28 on Jul 02,2017, Elapsed time: 0:00:06
# Errors: 0, Warnings: 1
# vsim -coverage work.tb_seq_det_mealy_1011 
# Start time: 22:41:28 on Jul 02,2017
# ** Note: (vsim-3813) Design is being optimized due to module recompilation...
# ** Note: (vopt-143) Recognized 1 FSM in module "seq_det_mealy_1011(fast)".
# Loading sv_std.std
# Loading work.tb_seq_det_mealy_1011(fast)
run -all
#                    0clk=0,rst=0,x=0,y=x
#                    5clk=1,rst=0,x=1,y=0
#                   10clk=0,rst=0,x=1,y=0
#                   12clk=0,rst=1,x=1,y=0
#                   15clk=1,rst=1,x=1,y=0
#                   20clk=0,rst=1,x=1,y=0
#                   25clk=1,rst=1,x=0,y=0
#                   30clk=0,rst=1,x=0,y=0
#                   35clk=1,rst=1,x=0,y=0
#                   40clk=0,rst=1,x=0,y=0
#                   42clk=0,rst=0,x=0,y=0
#                   45clk=1,rst=0,x=1,y=0
#                   50clk=0,rst=0,x=1,y=0
#                   52clk=0,rst=1,x=1,y=0
#                   55clk=1,rst=1,x=0,y=0
#                   60clk=0,rst=1,x=0,y=0
#                   65clk=1,rst=1,x=1,y=0
#                   70clk=0,rst=1,x=1,y=0
#                   75clk=1,rst=1,x=1,y=1
#                   80clk=0,rst=1,x=1,y=1
#                   85clk=1,rst=1,x=0,y=0
#                   90clk=0,rst=1,x=0,y=0
#                   95clk=1,rst=1,x=1,y=0
#                  100clk=0,rst=1,x=1,y=0
#                  105clk=1,rst=1,x=0,y=0
#                  110clk=0,rst=1,x=0,y=0
#                  115clk=1,rst=1,x=1,y=0
#                  120clk=0,rst=1,x=1,y=0
#                  125clk=1,rst=1,x=1,y=1
#                  130clk=0,rst=1,x=1,y=1
#                  135clk=1,rst=1,x=0,y=0
#                  140clk=0,rst=1,x=0,y=0
#                  145clk=1,rst=1,x=1,y=0
#                  150clk=0,rst=1,x=1,y=0
#                  155clk=1,rst=1,x=1,y=1
#                  160clk=0,rst=1,x=1,y=1
#                  165clk=1,rst=1,x=1,y=0
#                  170clk=0,rst=1,x=1,y=0
#                  175clk=1,rst=1,x=1,y=0
#                  180clk=0,rst=1,x=1,y=0
#                  185clk=1,rst=1,x=1,y=0
#                  190clk=0,rst=1,x=1,y=0
#                  195clk=1,rst=1,x=1,y=0
#                  200clk=0,rst=1,x=1,y=0
#                  205clk=1,rst=1,x=1,y=0
#                  210clk=0,rst=1,x=1,y=0
#                  215clk=1,rst=1,x=1,y=0
#                  220clk=0,rst=1,x=1,y=0
#                  225clk=1,rst=1,x=1,y=0
#                  230clk=0,rst=1,x=1,y=0
#                  235clk=1,rst=1,x=1,y=0
#                  240clk=0,rst=1,x=1,y=0
#                  245clk=1,rst=1,x=1,y=0
#                  250clk=0,rst=1,x=1,y=0
#                  255clk=1,rst=1,x=1,y=0
#                  260clk=0,rst=1,x=1,y=0
#                  265clk=1,rst=1,x=1,y=0
#                  270clk=0,rst=1,x=1,y=0
#                  275clk=1,rst=1,x=1,y=0
#                  280clk=0,rst=1,x=1,y=0
#                  285clk=1,rst=1,x=1,y=0
#                  290clk=0,rst=1,x=1,y=0
#                  295clk=1,rst=1,x=1,y=0
# ** Note: $stop    : tb_seq_det_mealy_1011.v(47)
#    Time: 300 ns  Iteration: 0  Instance: /tb_seq_det_mealy_1011
# Break in Module tb_seq_det_mealy_1011 at tb_seq_det_mealy_1011.v line 47
coverage report -html -htmldir covhtmlreport -details -assert -directive -cvg -code bcefst -threshL 50 -threshH 90
# Report created in covhtmlreport/index.html
# End time: 23:01:53 on Jul 02,2017, Elapsed time: 0:20:25
# Errors: 0, Warnings: 0
